[
  {
    "id": 1,
    "name": "Norra Skogsskolan",
    "price": 899,
    "specs": {
      "projects": 4,
      "milestones": 3,
      "manufacturer": "Sony",
      "storage": 16,
      "os": "Android",
      "camera": 15
    },
    "description": "Lorem ipsum dolor sit amet, consectetur adipiscing elit. Nullam tristique ipsum in efficitur pharetra. Maecenas luctus ante in neque maximus, sed viverra sem posuere. Vestibulum lectus nisi, laoreet vel suscipit nec, feugiat at odio. Etiam eget tellus arcu.",
    "rating": 4,
    "image": {
      "small": "/images/sony-xperia-z3.jpg",
      "large": "/images/sony-xperia-z3-large.jpg"
    }
  },
  {
    "id": 2,
    "name": "Spinchem",
    "price": 899,
    "specs": {
      "projects": 4,
      "milestones": 3,
      "manufacturer": "Apple",
      "storage": 16,
      "os": "iOS",
      "camera": 8
    },
    "description": "Lorem ipsum dolor sit amet, consectetur adipiscing elit. Nullam tristique ipsum in efficitur pharetra. Maecenas luctus ante in neque maximus, sed viverra sem posuere. Vestibulum lectus nisi, laoreet vel suscipit nec, feugiat at odio. Etiam eget tellus arcu.",
    "rating": 4,
    "image": {
      "small": "/images/iphone6.jpg",
      "large": "/images/iphone6-large.jpg"
    }
  },
  {
    "id": 3,
    "name": "Zordix AB",
    "price": 899,
    "specs": {
      "projects": 4,
      "milestones": 3,
      "manufacturer": "Apple",
      "storage": 16,
      "os": "iOS",
      "camera": 8
    },
    "description": "Lorem ipsum dolor sit amet, consectetur adipiscing elit. Nullam tristique ipsum in efficitur pharetra. Maecenas luctus ante in neque maximus, sed viverra sem posuere. Vestibulum lectus nisi, laoreet vel suscipit nec, feugiat at odio. Etiam eget tellus arcu.",
    "rating": 4,
    "image": {
      "small": "/images/iphone6.jpg",
      "large": "/images/iphone6-large.jpg"
    }
  }
]